<?xml version="1.0" encoding="UTF-8" standalone="no"?>
<!DOCTYPE svg PUBLIC "-//W3C//DTD SVG 1.1//EN" "http://www.w3.org/Graphics/SVG/1.1/DTD/svg11.dtd">
<svg width="100%" height="100%" viewBox="0 0 200 200" version="1.1" xmlns="http://www.w3.org/2000/svg" xmlns:xlink="http://www.w3.org/1999/xlink" xml:space="preserve" xmlns:serif="http://www.serif.com/" style="fill-rule:evenodd;clip-rule:evenodd;stroke-linecap:round;stroke-linejoin:round;stroke-miterlimit:1.5;">
    <rect id="Artboard1" x="0" y="0" width="200" height="200" style="fill:none;"/>
    <g id="Artboard11" serif:id="Artboard1">
        <g transform="matrix(0.794017,0,0,0.794017,9.49236,10.4924)">
            <path d="M0,92.366L46.183,92.366C58.432,92.366 70.178,87.5 78.839,78.839C87.5,70.178 92.366,58.432 92.366,46.183C92.366,33.934 87.5,22.188 78.839,13.527C70.178,4.866 58.432,-0 46.183,-0L0,0" style="fill:none;stroke:white;stroke-width:20.15px;"/>
        </g>
        <g transform="matrix(4.86195e-17,-0.794017,0.794017,4.86195e-17,9.49236,189.508)">
            <path d="M0,92.366L46.183,92.366C58.432,92.366 70.178,87.5 78.839,78.839C87.5,70.178 92.366,58.432 92.366,46.183L92.366,-0L0,0" style="fill:none;stroke:white;stroke-opacity:0.5;stroke-width:20.15px;"/>
        </g>
        <g transform="matrix(4.86195e-17,-0.794017,0.794017,4.86195e-17,116.168,189.508)">
            <path d="M0,92.366L46.183,92.366C58.432,92.366 70.178,87.5 78.839,78.839C87.5,70.178 92.366,58.432 92.366,46.183C92.366,33.934 87.5,22.188 78.839,13.527C70.178,4.866 58.432,-0 46.183,-0L0,0" style="fill:none;stroke:white;stroke-width:20.15px;"/>
        </g>
        <g transform="matrix(-0.794017,0,0,0.794017,189.508,10.4924)">
            <path d="M0,92.366L46.183,92.366C58.432,92.366 70.178,87.5 78.839,78.839C87.5,70.178 92.366,58.432 92.366,46.183C92.366,33.934 87.5,22.188 78.839,13.527C70.178,4.866 58.432,-0 46.183,-0L0,0" style="fill:none;stroke:white;stroke-opacity:0.5;stroke-width:20.15px;"/>
        </g>
    </g>
</svg>
