<?xml version="1.0" encoding="utf-8"?>
<!-- Generator: Adobe Illustrator 24.1.2, SVG Export Plug-In . SVG Version: 6.00 Build 0)  -->
<svg version="1.1" id="Layer_1" xmlns="http://www.w3.org/2000/svg" xmlns:xlink="http://www.w3.org/1999/xlink" x="0px" y="0px"
	 viewBox="0 0 680.3 680.3" style="enable-background:new 0 0 680.3 680.3;" xml:space="preserve">
<style type="text/css">
	.st0{fill:#27ABE2;}
</style>
<path class="st0" d="M564.2,372.2c0-80.3-49.3-148.9-119.2-177.6l-40.8,81.6v-112c0-8.8-7.2-16-16-16h-96c-8.8,0-16,7.2-16,16v112
	l-40.8-81.6c-69.9,28.7-119.2,97.4-119.2,177.6v64h448V372.2z M580.2,468.2h-480c-8.8,0-16,7.2-16,16v32c0,8.8,7.2,16,16,16h480
	c8.8,0,16-7.2,16-16v-32C596.2,475.3,589,468.2,580.2,468.2z"/>
</svg>
