<?xml version="1.0" encoding="utf-8"?>
<!-- Generator: Adobe Illustrator 24.1.2, SVG Export Plug-In . SVG Version: 6.00 Build 0)  -->
<svg version="1.1" id="Layer_1" xmlns="http://www.w3.org/2000/svg" xmlns:xlink="http://www.w3.org/1999/xlink" x="0px" y="0px"
	 viewBox="0 0 680.3 680.3" style="enable-background:new 0 0 680.3 680.3;" xml:space="preserve">
<style type="text/css">
	.st0{fill:#27ABE2;}
</style>
<path class="st0" d="M320.4,585.8C175.1,375.2,148.2,353.6,148.2,276.2c0-106,86-192,192-192s192,86,192,192
	c0,77.4-27,99-172.3,309.7C350.4,599.6,330,599.6,320.4,585.8L320.4,585.8z M340.2,356.2c44.2,0,80-35.8,80-80s-35.8-80-80-80
	s-80,35.8-80,80S296,356.2,340.2,356.2z"/>
</svg>
