<?xml version="1.0" encoding="utf-8"?>
<!-- Generator: Adobe Illustrator 24.1.2, SVG Export Plug-In . SVG Version: 6.00 Build 0)  -->
<svg version="1.1" id="Layer_1" xmlns="http://www.w3.org/2000/svg" xmlns:xlink="http://www.w3.org/1999/xlink" x="0px" y="0px"
	 viewBox="0 0 680.3 680.3" style="enable-background:new 0 0 680.3 680.3;" xml:space="preserve">
<path d="M323.3,90.5l-208,78c-18.7,7-31.1,25-31.1,45v225.1c0,18.2,10.3,34.8,26.5,42.9l208,104c13.5,6.8,29.4,6.8,42.9,0l208-104
	c16.3-8.1,26.5-24.8,26.5-42.9V213.5c0-20-12.4-37.9-31.1-44.9l-208-78C346.2,86.4,334.2,86.4,323.3,90.5z M340.2,152.6l192,72v1.1
	l-192,78l-192-78v-1.1C148.2,224.6,340.2,152.6,340.2,152.6z M372.2,508.6V359.7l160-65v133.9L372.2,508.6z"/>
</svg>
